I3C_XO5/sim/sim_controller/i3c_controller.vcd
$date
	Fri Mar 13 10:03:17 2026
$end
$version
	QuestaSim Version 2025.2
$end
$timescale
	1ps
$end
$scope module tb_top $end
$scope module u_i3c_dev $end
$scope module u_i3c_m $end
$scope module lscc_i3c_controller_inst $end
$var wire 1 ! scl_i $end
$var wire 1 " sda_i $end
$var wire 1 # scl_oe $end
$var wire 1 $ sda_oe $end
$var wire 1 % scl_o $end
$var wire 1 & sda_o $end
$var wire 1 ' sda_spu $end
$upscope $end
$upscope $end
$upscope $end
$upscope $end
$enddefinitions $end
#0
1!
1"
0#
x$
1%
x&
x'
1!
1"
0#
1%
#1000
0$
0'
1&
#7980000
1'
1$
0&
0"
#8040000
1#
#8240000
0%
0!
#8260000
0$
0'
1&
1"
#8480000
1%
1!
#8720000
0%
0!
#8960000
1%
1!
#9200000
0%
0!
#9440000
1%
1!
#9680000
0%
0!
#9920000
1%
1!
#10160000
0%
0!
#10400000
1%
1!
#10640000
0%
0!
#10880000
1%
1!
#11120000
0%
0!
#11140000
1'
1$
0&
0"
#11360000
1%
1!
#11600000
0%
0!
#11840000
1%
1!
#12080000
0$
0'
0%
0!
0"
#12320000
1'
1$
1%
1!
#12360000
0%
0!
#12400000
1%
1!
#12440000
0%
0!
#12480000
1%
1!
#12520000
0%
0!
#12560000
1%
1!
#12600000
0%
0!
#12640000
1%
1!
#12680000
0%
0!
#12720000
1%
1!
#12760000
0%
0!
#12780000
1&
1"
#12800000
1%
1!
#12840000
0%
0!
#12880000
1%
1!
#12920000
0%
0!
#12940000
0&
0"
#12960000
1%
1!
#13000000
0%
0!
#13020000
1&
1"
#13040000
1%
1!
#13080000
0%
0!
#13100000
0&
0"
#13120000
1%
1!
#13160000
0#
#13180000
1&
1"
#13220000
0$
0'
#14460000
1'
1$
0&
0"
#14520000
1#
#14720000
0%
0!
#14740000
0$
0'
1&
1"
#14960000
1%
1!
#15200000
0%
0!
#15440000
1%
1!
#15680000
0%
0!
#15920000
1%
1!
#16160000
0%
0!
#16400000
1%
1!
#16640000
0%
0!
#16880000
1%
1!
#17120000
0%
0!
#17360000
1%
1!
#17600000
0%
0!
#17620000
1'
1$
0&
0"
#17840000
1%
1!
#18080000
0%
0!
#18320000
1%
1!
#18560000
0$
0'
0%
0!
0"
#18800000
1'
1$
1%
1!
#18840000
0%
0!
#18880000
1%
1!
#18920000
0%
0!
#18960000
1%
1!
#19000000
0%
0!
#19040000
1%
1!
#19080000
0%
0!
#19120000
1%
1!
#19160000
0%
0!
#19200000
1%
1!
#19240000
0%
0!
#19260000
1&
1"
#19280000
1%
1!
#19320000
0%
0!
#19360000
1%
1!
#19400000
0%
0!
#19440000
1%
1!
#19480000
0%
0!
#19500000
0&
0"
#19520000
1%
1!
#19560000
0%
0!
#19580000
1&
1"
#19600000
1%
1!
#19620000
0&
0"
#19680000
0%
0!
#19700000
1&
1"
#19720000
1%
1!
#19760000
0%
0!
#19800000
1%
1!
#19840000
0%
0!
#19880000
1%
1!
#19920000
0%
0!
#19960000
1%
1!
#20000000
0%
0!
#20040000
1%
1!
#20080000
0%
0!
#20120000
1%
1!
#20160000
0%
0!
#20180000
0&
0"
#20200000
1%
1!
#20240000
0%
0!
#20260000
1&
1"
#20280000
1%
1!
#20320000
0$
0'
0%
0!
0"
#20340000
0&
#20640000
1%
1!
#20880000
0%
0!
#21120000
1%
1!
#21360000
0%
0!
#21600000
1%
1!
#21840000
0%
0!
#22080000
1%
1!
#22320000
0%
0!
#22560000
1%
1!
#22800000
0%
0!
#23040000
1%
1!
#23280000
0%
0!
#23520000
1%
1!
#23760000
0%
0!
1"
#24000000
1%
1!
#24240000
0%
0!
#24480000
1%
1!
#24720000
0%
0!
0"
#24960000
1%
1!
#25200000
0%
0!
#25440000
1%
1!
#25680000
0%
0!
1"
#25920000
1%
1!
#26160000
0%
0!
#26400000
1%
1!
#26640000
0%
0!
#26880000
1%
1!
#27120000
0%
0!
#27360000
1%
1!
#27600000
0%
0!
0"
#27840000
1%
1!
#28080000
0%
0!
#28320000
1%
1!
#28560000
0%
0!
#28800000
1%
1!
#29040000
0%
0!
#29280000
1%
1!
#29520000
0%
0!
#29760000
1%
1!
#30000000
0%
0!
#30240000
1%
1!
#30480000
0%
0!
#30720000
1%
1!
#30960000
0%
0!
#31200000
1%
1!
#31440000
0%
0!
#31680000
1%
1!
#31920000
0%
0!
#32160000
1%
1!
#32400000
0%
0!
#32640000
1%
1!
#32880000
0%
0!
#33120000
1%
1!
#33360000
0%
0!
#33600000
1%
1!
#33840000
0%
0!
#34080000
1%
1!
#34320000
0%
0!
#34560000
1%
1!
#34800000
0%
0!
#35040000
1%
1!
#35280000
0%
0!
#35520000
1%
1!
#35760000
0%
0!
1"
#36000000
1%
1!
#36240000
0%
0!
#36480000
1%
1!
#36720000
0%
0!
0"
#36960000
1%
1!
#37200000
0%
0!
#37440000
1%
1!
#37680000
0%
0!
1"
#37920000
1%
1!
#38160000
0%
0!
0"
#38400000
1%
1!
#38640000
0%
0!
#38880000
1%
1!
#39120000
0%
0!
#39360000
1%
1!
#39600000
0%
0!
#39840000
1%
1!
#40080000
0%
0!
#40320000
1%
1!
#40560000
0%
0!
#40800000
1%
1!
#41040000
0%
0!
#41280000
1%
1!
#41520000
0%
0!
#41760000
1%
1!
#42000000
0%
0!
#42240000
1%
1!
#42480000
0%
0!
#42720000
1%
1!
#42960000
0%
0!
#43200000
1%
1!
#43440000
0%
0!
#43680000
1%
1!
#43920000
0%
0!
#44160000
1%
1!
#44400000
0%
0!
1"
#44640000
1%
1!
#44880000
0%
0!
#45120000
1%
1!
#45360000
0%
0!
0"
#45600000
1%
1!
#45840000
0%
0!
#46080000
1%
1!
#46320000
0%
0!
1"
#46560000
1%
1!
#46800000
0%
0!
#47040000
1%
1!
#47280000
0%
0!
0"
#47520000
1%
1!
#47760000
0%
0!
#48000000
1%
1!
#48240000
0%
0!
#48480000
1%
1!
#48720000
0%
0!
#48960000
1%
1!
#49200000
0%
0!
#49440000
1%
1!
#49680000
0%
0!
#49920000
1%
1!
#50160000
0%
0!
#50400000
1%
1!
#50640000
0%
0!
#50880000
1%
1!
#51120000
0%
0!
#51360000
1%
1!
#51600000
0%
0!
1"
#51620000
1'
1$
0"
#51840000
1%
1!
#52080000
0%
0!
#52320000
1%
1!
#52560000
0%
0!
#52580000
0$
0'
1&
1"
#52800000
1%
1!
#53040000
0%
0!
#53060000
1'
1$
0&
0"
#53280000
1%
1!
#53520000
0%
0!
#53540000
0$
0'
1&
1"
#53760000
1%
1!
#54000000
0%
0!
#54020000
1'
1$
0&
0"
#54240000
1%
1!
#54480000
0%
0!
#54720000
1%
1!
#54960000
0%
0!
#54980000
0$
0'
1&
1"
#55200000
1%
1!
#55440000
0%
0!
0"
#55460000
0&
#55680000
1'
1$
1%
1!
#55720000
0%
0!
#55740000
1&
1"
#55760000
1%
1!
#55780000
0&
0"
#55840000
0%
0!
#55860000
1&
1"
#55880000
1%
1!
#55920000
0%
0!
#55960000
1%
1!
#56000000
0%
0!
#56040000
1%
1!
#56080000
0%
0!
#56120000
1%
1!
#56160000
0%
0!
#56200000
1%
1!
#56240000
0%
0!
#56280000
1%
1!
#56320000
0%
0!
#56340000
0&
0"
#56360000
1%
1!
#56400000
0%
0!
#56420000
1&
1"
#56440000
1%
1!
#56480000
0$
0'
0%
0!
0"
#56500000
0&
#56800000
1%
1!
#57040000
0%
0!
#57280000
1%
1!
#57520000
0%
0!
#57760000
1%
1!
#58000000
0%
0!
#58240000
1%
1!
#58480000
0%
0!
#58720000
1%
1!
#58960000
0%
0!
#59200000
1%
1!
#59440000
0%
0!
#59680000
1%
1!
#59920000
0%
0!
1"
#60160000
1%
1!
#60400000
0%
0!
#60640000
1%
1!
#60880000
0%
0!
0"
#61120000
1%
1!
#61360000
0%
0!
#61600000
1%
1!
#61840000
0%
0!
1"
#62080000
1%
1!
#62320000
0%
0!
#62560000
1%
1!
#62800000
0%
0!
#63040000
1%
1!
#63280000
0%
0!
#63520000
1%
1!
#63760000
0%
0!
0"
#64000000
1%
1!
#64240000
0%
0!
#64480000
1%
1!
#64720000
0%
0!
#64960000
1%
1!
#65200000
0%
0!
#65440000
1%
1!
#65680000
0%
0!
#65920000
1%
1!
#66160000
0%
0!
#66400000
1%
1!
#66640000
0%
0!
#66880000
1%
1!
#67120000
0%
0!
#67360000
1%
1!
#67600000
0%
0!
#67840000
1%
1!
#68080000
0%
0!
#68320000
1%
1!
#68560000
0%
0!
#68800000
1%
1!
#69040000
0%
0!
#69280000
1%
1!
#69520000
0%
0!
#69760000
1%
1!
#70000000
0%
0!
#70240000
1%
1!
#70480000
0%
0!
#70720000
1%
1!
#70960000
0%
0!
#71200000
1%
1!
#71440000
0%
0!
#71680000
1%
1!
#71920000
0%
0!
1"
#72160000
1%
1!
#72400000
0%
0!
#72640000
1%
1!
#72880000
0%
0!
0"
#73120000
1%
1!
#73360000
0%
0!
1"
#73600000
1%
1!
#73840000
0%
0!
0"
#74080000
1%
1!
#74320000
0%
0!
#74560000
1%
1!
#74800000
0%
0!
#75040000
1%
1!
#75280000
0%
0!
#75520000
1%
1!
#75760000
0%
0!
#76000000
1%
1!
#76240000
0%
0!
#76480000
1%
1!
#76720000
0%
0!
#76960000
1%
1!
#77200000
0%
0!
#77440000
1%
1!
#77680000
0%
0!
#77920000
1%
1!
#78160000
0%
0!
#78400000
1%
1!
#78640000
0%
0!
#78880000
1%
1!
#79120000
0%
0!
#79360000
1%
1!
#79600000
0%
0!
#79840000
1%
1!
#80080000
0%
0!
#80320000
1%
1!
#80560000
0%
0!
#80800000
1%
1!
#81040000
0%
0!
#81280000
1%
1!
#81520000
0%
0!
#81760000
1%
1!
#82000000
0%
0!
#82240000
1%
1!
#82480000
0%
0!
#82720000
1%
1!
#82960000
0%
0!
1"
#83200000
1%
1!
#83440000
0%
0!
#83680000
1%
1!
#83920000
0%
0!
0"
#84160000
1%
1!
#84400000
0%
0!
#84640000
1%
1!
#84880000
0%
0!
#85120000
1%
1!
#85360000
0%
0!
#85600000
1%
1!
#85840000
0%
0!
#86080000
1%
1!
#86320000
0%
0!
#86560000
1%
1!
#86800000
0%
0!
#87040000
1%
1!
#87280000
0%
0!
#87520000
1%
1!
#87760000
0%
0!
1"
#87780000
1'
1$
0"
#88000000
1%
1!
#88240000
0%
0!
#88480000
1%
1!
#88720000
0%
0!
#88740000
0$
0'
1&
1"
#88960000
1%
1!
#89200000
0%
0!
#89220000
1'
1$
0&
0"
#89440000
1%
1!
#89680000
0%
0!
#89700000
0$
0'
1&
1"
#89920000
1%
1!
#90160000
0%
0!
#90180000
1'
1$
0&
0"
#90400000
1%
1!
#90640000
0%
0!
#90660000
0$
0'
1&
1"
#90880000
1%
1!
#91120000
0%
0!
#91140000
1'
1$
0&
0"
#91360000
1%
1!
#91600000
0$
0'
0%
0!
0"
#91840000
1'
1$
1%
1!
#91880000
0%
0!
#91900000
1&
1"
#91920000
1%
1!
#91940000
0&
0"
#92000000
0%
0!
#92020000
1&
1"
#92040000
1%
1!
#92080000
0%
0!
#92120000
1%
1!
#92160000
0%
0!
#92200000
1%
1!
#92240000
0%
0!
#92280000
1%
1!
#92320000
0%
0!
#92360000
1%
1!
#92400000
0%
0!
#92440000
1%
1!
#92480000
0%
0!
#92500000
0&
0"
#92520000
1%
1!
#92560000
0%
0!
#92580000
1&
1"
#92600000
1%
1!
#92640000
0$
0'
0%
0!
0"
#92660000
0&
#92960000
1%
1!
#93200000
0%
0!
#93440000
1%
1!
#93680000
0%
0!
#93920000
1%
1!
#94160000
0%
0!
#94400000
1%
1!
#94640000
0%
0!
#94880000
1%
1!
#95120000
0%
0!
#95360000
1%
1!
#95600000
0%
0!
#95840000
1%
1!
#96080000
0%
0!
1"
#96320000
1%
1!
#96560000
0%
0!
#96800000
1%
1!
#97040000
0%
0!
0"
#97280000
1%
1!
#97520000
0%
0!
#97760000
1%
1!
#98000000
0%
0!
1"
#98240000
1%
1!
#98480000
0%
0!
#98720000
1%
1!
#98960000
0%
0!
#99200000
1%
1!
#99440000
0%
0!
#99680000
1%
1!
#99920000
0%
0!
0"
#100160000
1%
1!
#100400000
0%
0!
#100640000
1%
1!
#100880000
0%
0!
#101120000
1%
1!
#101360000
0%
0!
#101600000
1%
1!
#101840000
0%
0!
#102080000
1%
1!
#102320000
0%
0!
#102560000
1%
1!
#102800000
0%
0!
#103040000
1%
1!
#103280000
0%
0!
#103520000
1%
1!
#103760000
0%
0!
#104000000
1%
1!
#104240000
0%
0!
#104480000
1%
1!
#104720000
0%
0!
#104960000
1%
1!
#105200000
0%
0!
#105440000
1%
1!
#105680000
0%
0!
#105920000
1%
1!
#106160000
0%
0!
#106400000
1%
1!
#106640000
0%
0!
#106880000
1%
1!
#107120000
0%
0!
#107360000
1%
1!
#107600000
0%
0!
#107840000
1%
1!
#108080000
0%
0!
1"
#108320000
1%
1!
#108560000
0%
0!
#108800000
1%
1!
#109040000
0%
0!
0"
#109280000
1%
1!
#109520000
0%
0!
1"
#109760000
1%
1!
#110000000
0%
0!
#110240000
1%
1!
#110480000
0%
0!
0"
#110720000
1%
1!
#110960000
0%
0!
#111200000
1%
1!
#111440000
0%
0!
#111680000
1%
1!
#111920000
0%
0!
#112160000
1%
1!
#112400000
0%
0!
#112640000
1%
1!
#112880000
0%
0!
#113120000
1%
1!
#113360000
0%
0!
#113600000
1%
1!
#113840000
0%
0!
#114080000
1%
1!
#114320000
0%
0!
#114560000
1%
1!
#114800000
0%
0!
#115040000
1%
1!
#115280000
0%
0!
#115520000
1%
1!
#115760000
0%
0!
#116000000
1%
1!
#116240000
0%
0!
#116480000
1%
1!
#116720000
0%
0!
#116960000
1%
1!
#117200000
0%
0!
1"
#117440000
1%
1!
#117680000
0%
0!
0"
#117920000
1%
1!
#118160000
0%
0!
#118400000
1%
1!
#118640000
0%
0!
1"
#118880000
1%
1!
#119120000
0%
0!
#119360000
1%
1!
#119600000
0%
0!
#119840000
1%
1!
#120080000
0%
0!
0"
#120320000
1%
1!
#120560000
0%
0!
#120800000
1%
1!
#121040000
0%
0!
#121280000
1%
1!
#121520000
0%
0!
#121760000
1%
1!
#122000000
0%
0!
#122240000
1%
1!
#122480000
0%
0!
#122720000
1%
1!
#122960000
0%
0!
#123200000
1%
1!
#123440000
0%
0!
#123680000
1%
1!
#123920000
0%
0!
1"
#123940000
1'
1$
0"
#124160000
1%
1!
#124400000
0%
0!
#124640000
1%
1!
#124880000
0%
0!
#124900000
0$
0'
1&
1"
#125120000
1%
1!
#125360000
0%
0!
#125380000
1'
1$
0&
0"
#125600000
1%
1!
#125840000
0%
0!
#125860000
0$
0'
1&
1"
#126080000
1%
1!
#126320000
0%
0!
#126560000
1%
1!
#126800000
0%
0!
#126820000
1'
1$
0&
0"
#127040000
1%
1!
#127280000
0%
0!
#127520000
1%
1!
#127760000
0$
0'
0%
0!
0"
#128000000
1'
1$
1%
1!
#128040000
0%
0!
#128060000
1&
1"
#128080000
1%
1!
#128100000
0&
0"
#128160000
0%
0!
#128180000
1&
1"
#128200000
1%
1!
#128240000
0%
0!
#128280000
1%
1!
#128320000
0%
0!
#128360000
1%
1!
#128400000
0%
0!
#128440000
1%
1!
#128480000
0%
0!
#128520000
1%
1!
#128560000
0%
0!
#128600000
1%
1!
#128640000
0%
0!
#128660000
0&
0"
#128680000
1%
1!
#128720000
0%
0!
#128740000
1&
1"
#128760000
1%
1!
#128800000
0$
0'
0%
0!
#128820000
0&
#128860000
1&
#129120000
1%
1!
#129360000
0%
0!
#129380000
1'
1$
#129860000
0&
0"
#130100000
1&
1"
#130340000
0&
0"
#130580000
1&
1"
#130820000
0&
0"
#131060000
1&
1"
#131300000
0&
0"
#131520000
1%
1!
#131560000
0#
#131780000
1&
1"
#131820000
0$
0'
#152700000
1'
1$
0&
0"
#152760000
1#
#152960000
0%
0!
#152980000
0$
0'
1&
1"
#153200000
1%
1!
#153440000
0%
0!
#153680000
1%
1!
#153920000
0%
0!
#154160000
1%
1!
#154400000
0%
0!
#154640000
1%
1!
#154880000
0%
0!
#155120000
1%
1!
#155360000
0%
0!
#155600000
1%
1!
#155840000
0%
0!
#155860000
1'
1$
0&
0"
#156080000
1%
1!
#156320000
0%
0!
#156560000
1%
1!
#156800000
0$
0'
0%
0!
0"
#157040000
1'
1$
1%
1!
#157080000
0%
0!
#157120000
1%
1!
#157160000
0%
0!
#157200000
1%
1!
#157240000
0%
0!
#157260000
1&
1"
#157280000
1%
1!
#157320000
0%
0!
#157340000
0&
0"
#157360000
1%
1!
#157400000
0%
0!
#157420000
1&
1"
#157440000
1%
1!
#157480000
0%
0!
#157500000
0&
0"
#157520000
1%
1!
#157560000
0%
0!
#157580000
1&
1"
#157600000
1%
1!
#157640000
0%
0!
#157660000
0&
0"
#157680000
1%
1!
#157720000
0%
0!
#157760000
1%
1!
#157800000
0%
0!
#157840000
1%
1!
#157880000
0%
0!
#157920000
1%
1!
#157960000
0%
0!
#158000000
1%
1!
#158040000
0%
0!
#158080000
1%
1!
#158120000
0%
0!
#158160000
1%
1!
#158200000
0%
0!
#158240000
1%
1!
#158280000
0%
0!
#158320000
1%
1!
#158360000
0%
0!
#158400000
1%
1!
#158440000
0%
0!
#158460000
1&
1"
#158480000
1%
1!
#158520000
0%
0!
#158660000
0&
0"
#158700000
1&
1"
#158740000
0&
0"
#158780000
1&
1"
#158820000
0&
0"
#158860000
1&
1"
#158900000
0&
0"
#158940000
1&
1"
#158980000
0&
0"
#159020000
1&
1"
#159060000
0&
0"
#159100000
1&
1"
#159140000
0&
0"
#159180000
1&
1"
#159240000
1%
1!
#159260000
0&
0"
#159320000
0#
#159340000
1&
1"
#159380000
0$
0'
#162060000
1'
1$
0&
0"
#162120000
1#
#162320000
0%
0!
#162340000
0$
0'
1&
1"
#162560000
1%
1!
#162800000
0%
0!
#163040000
1%
1!
#163280000
0%
0!
#163520000
1%
1!
#163760000
0%
0!
#164000000
1%
1!
#164240000
0%
0!
#164480000
1%
1!
#164720000
0%
0!
#164960000
1%
1!
#165200000
0%
0!
#165220000
1'
1$
0&
0"
#165440000
1%
1!
#165680000
0%
0!
#165920000
1%
1!
#166160000
0$
0'
0%
0!
0"
#166400000
1'
1$
1%
1!
#166440000
0%
0!
#166480000
1%
1!
#166520000
0%
0!
#166560000
1%
1!
#166600000
0%
0!
#166620000
1&
1"
#166640000
1%
1!
#166680000
0%
0!
#166700000
0&
0"
#166720000
1%
1!
#166760000
0%
0!
#166780000
1&
1"
#166800000
1%
1!
#166840000
0%
0!
#166860000
0&
0"
#166880000
1%
1!
#166920000
0%
0!
#166940000
1&
1"
#166960000
1%
1!
#167000000
0%
0!
#167020000
0&
0"
#167040000
1%
1!
#167080000
0%
0!
#167120000
1%
1!
#167160000
0%
0!
#167200000
1%
1!
#167240000
0%
0!
#167280000
1%
1!
#167320000
0%
0!
#167360000
1%
1!
#167400000
0%
0!
#167440000
1%
1!
#167480000
0%
0!
#167520000
1%
1!
#167560000
0%
0!
#167600000
1%
1!
#167640000
0%
0!
#167680000
1%
1!
#167720000
0%
0!
#167740000
1&
1"
#167760000
1%
1!
#167800000
0%
0!
#167820000
0&
0"
#167840000
1%
1!
#167880000
0%
0!
#167980000
1&
1"
#168020000
0&
0"
#168060000
1&
1"
#168100000
0&
0"
#168140000
1&
1"
#168180000
0&
0"
#168220000
1&
1"
#168260000
0&
0"
#168300000
1&
1"
#168340000
0&
0"
#168380000
1&
1"
#168420000
0&
0"
#168460000
1&
1"
#168500000
0&
0"
#168540000
1&
1"
#168600000
1%
1!
#168620000
0&
0"
#168680000
0#
#168700000
1&
1"
#168740000
0$
0'
#171420000
1'
1$
0&
0"
#171480000
1#
#171680000
0%
0!
#171700000
0$
0'
1&
1"
#171920000
1%
1!
#172160000
0%
0!
#172400000
1%
1!
#172640000
0%
0!
#172880000
1%
1!
#173120000
0%
0!
#173360000
1%
1!
#173600000
0%
0!
#173840000
1%
1!
#174080000
0%
0!
#174320000
1%
1!
#174560000
0%
0!
#174580000
1'
1$
0&
0"
#174800000
1%
1!
#175040000
0%
0!
#175280000
1%
1!
#175520000
0$
0'
0%
0!
0"
#175760000
1'
1$
1%
1!
#175800000
0%
0!
#175840000
1%
1!
#175880000
0%
0!
#175920000
1%
1!
#175960000
0%
0!
#175980000
1&
1"
#176000000
1%
1!
#176040000
0%
0!
#176060000
0&
0"
#176080000
1%
1!
#176120000
0%
0!
#176140000
1&
1"
#176160000
1%
1!
#176200000
0%
0!
#176220000
0&
0"
#176240000
1%
1!
#176280000
0%
0!
#176300000
1&
1"
#176320000
1%
1!
#176360000
0%
0!
#176380000
0&
0"
#176400000
1%
1!
#176440000
0%
0!
#176480000
1%
1!
#176520000
0%
0!
#176560000
1%
1!
#176600000
0%
0!
#176640000
1%
1!
#176680000
0%
0!
#176720000
1%
1!
#176760000
0%
0!
#176800000
1%
1!
#176840000
0%
0!
#176880000
1%
1!
#176920000
0%
0!
#176960000
1%
1!
#177000000
0%
0!
#177020000
1&
1"
#177040000
1%
1!
#177080000
0%
0!
#177100000
0&
0"
#177120000
1%
1!
#177160000
0%
0!
#177200000
1%
1!
#177240000
0%
0!
#177340000
1&
1"
#177380000
0&
0"
#177420000
1&
1"
#177460000
0&
0"
#177500000
1&
1"
#177540000
0&
0"
#177580000
1&
1"
#177620000
0&
0"
#177660000
1&
1"
#177700000
0&
0"
#177740000
1&
1"
#177780000
0&
0"
#177820000
1&
1"
#177860000
0&
0"
#177900000
1&
1"
#177960000
1%
1!
#177980000
0&
0"
#178040000
0#
#178060000
1&
1"
#178100000
0$
0'
#180780000
1'
1$
0&
0"
#180840000
1#
#181040000
0%
0!
#181060000
0$
0'
1&
1"
#181280000
1%
1!
#181520000
0%
0!
#181760000
1%
1!
#182000000
0%
0!
#182240000
1%
1!
#182480000
0%
0!
#182720000
1%
1!
#182960000
0%
0!
#183200000
1%
1!
#183440000
0%
0!
#183680000
1%
1!
#183920000
0%
0!
#183940000
1'
1$
0&
0"
#184160000
1%
1!
#184400000
0%
0!
#184640000
1%
1!
#184880000
0$
0'
0%
0!
0"
#185120000
1'
1$
1%
1!
#185160000
0%
0!
#185180000
1&
1"
#185200000
1%
1!
#185240000
0%
0!
#185260000
0&
0"
#185280000
1%
1!
#185320000
0%
0!
#185360000
1%
1!
#185400000
0%
0!
#185420000
1&
1"
#185440000
1%
1!
#185480000
0%
0!
#185520000
1%
1!
#185560000
0%
0!
#185580000
0&
0"
#185600000
1%
1!
#185640000
0%
0!
#185660000
1&
1"
#185680000
1%
1!
#185720000
0%
0!
#185740000
0&
0"
#185760000
1%
1!
#185800000
0%
0!
#185820000
1&
1"
#185840000
1%
1!
#185880000
0%
0!
#185900000
0&
0"
#185920000
1%
1!
#185960000
0%
0!
#186000000
1%
1!
#186040000
0%
0!
#186080000
1%
1!
#186120000
0%
0!
#186160000
1%
1!
#186200000
0%
0!
#186240000
1%
1!
#186280000
0%
0!
#186320000
1%
1!
#186360000
0%
0!
#186400000
1%
1!
#186440000
0%
0!
#186460000
1&
1"
#186480000
1%
1!
#186520000
0%
0!
#186540000
0&
0"
#186560000
1%
1!
#186600000
0%
0!
#186620000
1&
1"
#186640000
1%
1!
#186660000
0&
0"
#186720000
0%
0!
#186760000
1%
1!
#186800000
0%
0!
#186840000
1%
1!
#186880000
0%
0!
#186900000
1&
1"
#186920000
1%
1!
#186960000
0%
0!
#186980000
0&
0"
#187000000
1%
1!
#187040000
0%
0!
#187060000
1&
1"
#187080000
1%
1!
#187120000
0%
0!
#187140000
0&
0"
#187160000
1%
1!
#187200000
0%
0!
#187240000
1%
1!
#187280000
0%
0!
#187320000
1%
1!
#187360000
0$
0'
0%
0!
0"
#187680000
1'
1$
1%
1!
#187720000
0%
0!
#187820000
1&
1"
#187860000
0&
0"
#187900000
1&
1"
#187940000
0&
0"
#187980000
1&
1"
#188020000
0&
0"
#188060000
1&
1"
#188100000
0&
0"
#188140000
1&
1"
#188180000
0&
0"
#188220000
1&
1"
#188260000
0&
0"
#188300000
1&
1"
#188340000
0&
0"
#188380000
1&
1"
#188440000
1%
1!
#188460000
0&
0"
#188520000
0#
#188540000
1&
1"
#188580000
0$
0'
#190700000
1'
1$
0&
0"
#190760000
1#
#190960000
0%
0!
#190980000
0$
0'
1&
1"
#191200000
1%
1!
#191440000
0%
0!
#191680000
1%
1!
#191920000
0%
0!
#192160000
1%
1!
#192400000
0%
0!
#192640000
1%
1!
#192880000
0%
0!
#193120000
1%
1!
#193360000
0%
0!
#193600000
1%
1!
#193840000
0%
0!
#193860000
1'
1$
0&
0"
#194080000
1%
1!
#194320000
0%
0!
#194560000
1%
1!
#194800000
0$
0'
0%
0!
0"
#195040000
1'
1$
1%
1!
#195080000
0%
0!
#195100000
1&
1"
#195120000
1%
1!
#195160000
0%
0!
#195180000
0&
0"
#195200000
1%
1!
#195240000
0%
0!
#195280000
1%
1!
#195320000
0%
0!
#195340000
1&
1"
#195360000
1%
1!
#195400000
0%
0!
#195440000
1%
1!
#195480000
0%
0!
#195500000
0&
0"
#195520000
1%
1!
#195560000
0%
0!
#195580000
1&
1"
#195600000
1%
1!
#195640000
0%
0!
#195660000
0&
0"
#195680000
1%
1!
#195720000
0%
0!
#195740000
1&
1"
#195760000
1%
1!
#195800000
0%
0!
#195820000
0&
0"
#195840000
1%
1!
#195880000
0%
0!
#195920000
1%
1!
#195960000
0%
0!
#196000000
1%
1!
#196040000
0%
0!
#196080000
1%
1!
#196120000
0%
0!
#196160000
1%
1!
#196200000
0%
0!
#196240000
1%
1!
#196280000
0%
0!
#196300000
1&
1"
#196320000
1%
1!
#196360000
0%
0!
#196380000
0&
0"
#196400000
1%
1!
#196440000
0%
0!
#196480000
1%
1!
#196520000
0%
0!
#196540000
1&
1"
#196560000
1%
1!
#196580000
0&
0"
#196640000
0%
0!
#196680000
1%
1!
#196720000
0%
0!
#196760000
1%
1!
#196800000
0%
0!
#196820000
1&
1"
#196840000
1%
1!
#196880000
0%
0!
#196900000
0&
0"
#196920000
1%
1!
#196960000
0%
0!
#196980000
1&
1"
#197000000
1%
1!
#197040000
0%
0!
#197060000
0&
0"
#197080000
1%
1!
#197120000
0%
0!
#197160000
1%
1!
#197200000
0%
0!
#197220000
1&
1"
#197240000
1%
1!
#197280000
0$
0'
0%
0!
0"
#197300000
0&
#197600000
1%
1!
#197640000
1'
0%
0!
#197680000
1%
1!
#197720000
0%
0!
#197760000
1%
1!
#197800000
0%
0!
#197840000
1%
1!
#197880000
0%
0!
#197920000
1%
1!
#197960000
0%
0!
#198000000
1%
1!
#198040000
0%
0!
#198080000
1%
1!
#198120000
0%
0!
#198160000
1%
1!
#198200000
0%
0!
1"
#198220000
1&
#198240000
1%
1!
#198280000
0%
0!
0"
#198300000
0&
#198320000
1$
1%
1!
#198360000
0%
0!
#198460000
1&
1"
#198500000
0&
0"
#198540000
1&
1"
#198580000
0&
0"
#198620000
1&
1"
#198660000
0&
0"
#198700000
1&
1"
#198740000
0&
0"
#198780000
1&
1"
#198820000
0&
0"
#198860000
1&
1"
#198900000
0&
0"
#198940000
1&
1"
#198980000
0&
0"
#199020000
1&
1"
#199080000
1%
1!
#199100000
0&
0"
#199160000
0#
#199180000
1&
1"
#199220000
0$
0'
#203940000
1'
1$
0&
0"
#204000000
1#
#204200000
0%
0!
#204220000
0$
0'
1&
1"
#204440000
1%
1!
#204680000
0%
0!
#204920000
1%
1!
#205160000
0%
0!
#205400000
1%
1!
#205640000
0%
0!
#205880000
1%
1!
#206120000
0%
0!
#206360000
1%
1!
#206600000
0%
0!
#206840000
1%
1!
#207080000
0%
0!
#207100000
1'
1$
0&
0"
#207320000
1%
1!
#207560000
0%
0!
#207800000
1%
1!
#208040000
0$
0'
0%
0!
0"
#208280000
1'
1$
1%
1!
#208320000
0%
0!
#208340000
1&
1"
#208360000
1%
1!
#208400000
0%
0!
#208420000
0&
0"
#208440000
1%
1!
#208480000
0%
0!
#208520000
1%
1!
#208560000
0%
0!
#208580000
1&
1"
#208600000
1%
1!
#208640000
0%
0!
#208680000
1%
1!
#208720000
0%
0!
#208740000
0&
0"
#208760000
1%
1!
#208800000
0%
0!
#208820000
1&
1"
#208840000
1%
1!
#208880000
0%
0!
#208900000
0&
0"
#208920000
1%
1!
#208960000
0%
0!
#208980000
1&
1"
#209000000
1%
1!
#209040000
0%
0!
#209060000
0&
0"
#209080000
1%
1!
#209120000
0%
0!
#209160000
1%
1!
#209200000
0%
0!
#209240000
1%
1!
#209280000
0%
0!
#209320000
1%
1!
#209360000
0%
0!
#209400000
1%
1!
#209440000
0%
0!
#209480000
1%
1!
#209520000
0%
0!
#209560000
1%
1!
#209600000
0%
0!
#209620000
1&
1"
#209640000
1%
1!
#209680000
0%
0!
#209700000
0&
0"
#209720000
1%
1!
#209760000
0%
0!
#209780000
1&
1"
#209800000
1%
1!
#209820000
0&
0"
#209880000
0%
0!
#209920000
1%
1!
#209960000
0%
0!
#210000000
1%
1!
#210040000
0%
0!
#210060000
1&
1"
#210080000
1%
1!
#210120000
0%
0!
#210140000
0&
0"
#210160000
1%
1!
#210200000
0%
0!
#210220000
1&
1"
#210240000
1%
1!
#210280000
0%
0!
#210320000
1%
1!
#210360000
0%
0!
#210400000
1%
1!
#210440000
0%
0!
#210460000
0&
0"
#210480000
1%
1!
#210520000
0$
0'
0%
0!
1"
#210580000
1&
#210840000
1%
1!
#210860000
1'
1$
#210880000
0%
0!
#210920000
1%
1!
#210940000
0&
0"
#211000000
0%
0!
#211040000
1%
1!
#211080000
0%
0!
#211120000
1%
1!
#211160000
0%
0!
#211180000
1&
1"
#211200000
1%
1!
#211240000
0%
0!
#211260000
0&
0"
